-------------------------------------------------------------------------------
Test set: TestSuite
-------------------------------------------------------------------------------
Tests run: 4, Failures: 3, Errors: 0, Skipped: 0, Time elapsed: 362.387 sec <<< FAILURE! - in TestSuite
TestLogin(test.appium.android.testcases.LoginTest)  Time elapsed: 24.53 sec  <<< FAILURE!
java.lang.AssertionError: null
	at test.appium.android.testcases.LoginTest.TestLogin(LoginTest.java:18)

TestLogin(test.appium.android.testcases.LoginTest)  Time elapsed: 41.576 sec  <<< FAILURE!
java.lang.AssertionError: null
	at test.appium.android.testcases.LoginTest.TestLogin(LoginTest.java:18)

searchTest(test.appium.android.testcases.SampleTest)  Time elapsed: 1.002 sec  <<< FAILURE!
java.lang.NullPointerException: null
	at test.appium.android.testcases.SampleTest.searchTest(SampleTest.java:30)

